simulation/qsim/JupsCore.msim.vcd
$comment
	File created using the following command:
		vcd file JupsCore.msim.vcd -direction
$end
$date
	Sun Feb 21 17:13:06 2021
$end
$version
	ModelSim Version 10.5b
$end
$timescale
	1ps
$end

$scope module RandomAccessMemory_vlg_vec_tst $end
$var reg 32 ! Addr [31:0] $end
$var reg 1 " Clock $end
$var reg 1 # ClockAuto $end
$var reg 32 $ DataIn [31:0] $end
$var reg 1 % WriteMem $end
$var reg 1 & useStk $end
$var wire 1 ' DataOut [31] $end
$var wire 1 ( DataOut [30] $end
$var wire 1 ) DataOut [29] $end
$var wire 1 * DataOut [28] $end
$var wire 1 + DataOut [27] $end
$var wire 1 , DataOut [26] $end
$var wire 1 - DataOut [25] $end
$var wire 1 . DataOut [24] $end
$var wire 1 / DataOut [23] $end
$var wire 1 0 DataOut [22] $end
$var wire 1 1 DataOut [21] $end
$var wire 1 2 DataOut [20] $end
$var wire 1 3 DataOut [19] $end
$var wire 1 4 DataOut [18] $end
$var wire 1 5 DataOut [17] $end
$var wire 1 6 DataOut [16] $end
$var wire 1 7 DataOut [15] $end
$var wire 1 8 DataOut [14] $end
$var wire 1 9 DataOut [13] $end
$var wire 1 : DataOut [12] $end
$var wire 1 ; DataOut [11] $end
$var wire 1 < DataOut [10] $end
$var wire 1 = DataOut [9] $end
$var wire 1 > DataOut [8] $end
$var wire 1 ? DataOut [7] $end
$var wire 1 @ DataOut [6] $end
$var wire 1 A DataOut [5] $end
$var wire 1 B DataOut [4] $end
$var wire 1 C DataOut [3] $end
$var wire 1 D DataOut [2] $end
$var wire 1 E DataOut [1] $end
$var wire 1 F DataOut [0] $end

$scope module i1 $end
$var wire 1 G gnd $end
$var wire 1 H vcc $end
$var wire 1 I unknown $end
$var tri1 1 J devclrn $end
$var tri1 1 K devpor $end
$var tri1 1 L devoe $end
$var wire 1 M Addr[9]~input_o $end
$var wire 1 N Addr[10]~input_o $end
$var wire 1 O Addr[11]~input_o $end
$var wire 1 P Addr[12]~input_o $end
$var wire 1 Q Addr[13]~input_o $end
$var wire 1 R Addr[14]~input_o $end
$var wire 1 S Addr[15]~input_o $end
$var wire 1 T Addr[16]~input_o $end
$var wire 1 U Addr[17]~input_o $end
$var wire 1 V Addr[18]~input_o $end
$var wire 1 W Addr[19]~input_o $end
$var wire 1 X Addr[20]~input_o $end
$var wire 1 Y Addr[21]~input_o $end
$var wire 1 Z Addr[22]~input_o $end
$var wire 1 [ Addr[23]~input_o $end
$var wire 1 \ Addr[24]~input_o $end
$var wire 1 ] Addr[25]~input_o $end
$var wire 1 ^ Addr[26]~input_o $end
$var wire 1 _ Addr[27]~input_o $end
$var wire 1 ` Addr[28]~input_o $end
$var wire 1 a Addr[29]~input_o $end
$var wire 1 b Addr[30]~input_o $end
$var wire 1 c Addr[31]~input_o $end
$var wire 1 d DataOut[0]~output_o $end
$var wire 1 e DataOut[1]~output_o $end
$var wire 1 f DataOut[2]~output_o $end
$var wire 1 g DataOut[3]~output_o $end
$var wire 1 h DataOut[4]~output_o $end
$var wire 1 i DataOut[5]~output_o $end
$var wire 1 j DataOut[6]~output_o $end
$var wire 1 k DataOut[7]~output_o $end
$var wire 1 l DataOut[8]~output_o $end
$var wire 1 m DataOut[9]~output_o $end
$var wire 1 n DataOut[10]~output_o $end
$var wire 1 o DataOut[11]~output_o $end
$var wire 1 p DataOut[12]~output_o $end
$var wire 1 q DataOut[13]~output_o $end
$var wire 1 r DataOut[14]~output_o $end
$var wire 1 s DataOut[15]~output_o $end
$var wire 1 t DataOut[16]~output_o $end
$var wire 1 u DataOut[17]~output_o $end
$var wire 1 v DataOut[18]~output_o $end
$var wire 1 w DataOut[19]~output_o $end
$var wire 1 x DataOut[20]~output_o $end
$var wire 1 y DataOut[21]~output_o $end
$var wire 1 z DataOut[22]~output_o $end
$var wire 1 { DataOut[23]~output_o $end
$var wire 1 | DataOut[24]~output_o $end
$var wire 1 } DataOut[25]~output_o $end
$var wire 1 ~ DataOut[26]~output_o $end
$var wire 1 !! DataOut[27]~output_o $end
$var wire 1 "! DataOut[28]~output_o $end
$var wire 1 #! DataOut[29]~output_o $end
$var wire 1 $! DataOut[30]~output_o $end
$var wire 1 %! DataOut[31]~output_o $end
$var wire 1 &! WriteMem~input_o $end
$var wire 1 '! useStk~input_o $end
$var wire 1 (! Stack~0_combout $end
$var wire 1 )! Clock~input_o $end
$var wire 1 *! Clock~inputclkctrl_outclk $end
$var wire 1 +! ClockAuto~input_o $end
$var wire 1 ,! ClockAuto~inputclkctrl_outclk $end
$var wire 1 -! DataIn[0]~input_o $end
$var wire 1 .! Addr[0]~input_o $end
$var wire 1 /! Addr[1]~input_o $end
$var wire 1 0! Addr[2]~input_o $end
$var wire 1 1! Addr[3]~input_o $end
$var wire 1 2! Addr[4]~input_o $end
$var wire 1 3! Addr[5]~input_o $end
$var wire 1 4! Addr[6]~input_o $end
$var wire 1 5! Addr[7]~input_o $end
$var wire 1 6! Addr[8]~input_o $end
$var wire 1 7! DataIn[1]~input_o $end
$var wire 1 8! DataIn[2]~input_o $end
$var wire 1 9! DataIn[3]~input_o $end
$var wire 1 :! DataIn[4]~input_o $end
$var wire 1 ;! DataIn[5]~input_o $end
$var wire 1 <! DataIn[6]~input_o $end
$var wire 1 =! DataIn[7]~input_o $end
$var wire 1 >! DataIn[8]~input_o $end
$var wire 1 ?! DataIn[9]~input_o $end
$var wire 1 @! DataIn[10]~input_o $end
$var wire 1 A! DataIn[11]~input_o $end
$var wire 1 B! DataIn[12]~input_o $end
$var wire 1 C! DataIn[13]~input_o $end
$var wire 1 D! DataIn[14]~input_o $end
$var wire 1 E! DataIn[15]~input_o $end
$var wire 1 F! DataIn[16]~input_o $end
$var wire 1 G! DataIn[17]~input_o $end
$var wire 1 H! Stack_rtl_0|auto_generated|ram_block1a0~portbdataout $end
$var wire 1 I! RAM~0_combout $end
$var wire 1 J! RAM_rtl_0|auto_generated|ram_block1a0~portbdataout $end
$var wire 1 K! DataOut~0_combout $end
$var wire 1 L! Stack_rtl_0|auto_generated|ram_block1a1 $end
$var wire 1 M! RAM_rtl_0|auto_generated|ram_block1a1 $end
$var wire 1 N! DataOut~1_combout $end
$var wire 1 O! RAM_rtl_0|auto_generated|ram_block1a2 $end
$var wire 1 P! Stack_rtl_0|auto_generated|ram_block1a2 $end
$var wire 1 Q! DataOut~2_combout $end
$var wire 1 R! RAM_rtl_0|auto_generated|ram_block1a3 $end
$var wire 1 S! Stack_rtl_0|auto_generated|ram_block1a3 $end
$var wire 1 T! DataOut~3_combout $end
$var wire 1 U! RAM_rtl_0|auto_generated|ram_block1a4 $end
$var wire 1 V! Stack_rtl_0|auto_generated|ram_block1a4 $end
$var wire 1 W! DataOut~4_combout $end
$var wire 1 X! RAM_rtl_0|auto_generated|ram_block1a5 $end
$var wire 1 Y! Stack_rtl_0|auto_generated|ram_block1a5 $end
$var wire 1 Z! DataOut~5_combout $end
$var wire 1 [! RAM_rtl_0|auto_generated|ram_block1a6 $end
$var wire 1 \! Stack_rtl_0|auto_generated|ram_block1a6 $end
$var wire 1 ]! DataOut~6_combout $end
$var wire 1 ^! Stack_rtl_0|auto_generated|ram_block1a7 $end
$var wire 1 _! RAM_rtl_0|auto_generated|ram_block1a7 $end
$var wire 1 `! DataOut~7_combout $end
$var wire 1 a! RAM_rtl_0|auto_generated|ram_block1a8 $end
$var wire 1 b! Stack_rtl_0|auto_generated|ram_block1a8 $end
$var wire 1 c! DataOut~8_combout $end
$var wire 1 d! Stack_rtl_0|auto_generated|ram_block1a9 $end
$var wire 1 e! RAM_rtl_0|auto_generated|ram_block1a9 $end
$var wire 1 f! DataOut~9_combout $end
$var wire 1 g! Stack_rtl_0|auto_generated|ram_block1a10 $end
$var wire 1 h! RAM_rtl_0|auto_generated|ram_block1a10 $end
$var wire 1 i! DataOut~10_combout $end
$var wire 1 j! RAM_rtl_0|auto_generated|ram_block1a11 $end
$var wire 1 k! Stack_rtl_0|auto_generated|ram_block1a11 $end
$var wire 1 l! DataOut~11_combout $end
$var wire 1 m! Stack_rtl_0|auto_generated|ram_block1a12 $end
$var wire 1 n! RAM_rtl_0|auto_generated|ram_block1a12 $end
$var wire 1 o! DataOut~12_combout $end
$var wire 1 p! RAM_rtl_0|auto_generated|ram_block1a13 $end
$var wire 1 q! Stack_rtl_0|auto_generated|ram_block1a13 $end
$var wire 1 r! DataOut~13_combout $end
$var wire 1 s! Stack_rtl_0|auto_generated|ram_block1a14 $end
$var wire 1 t! RAM_rtl_0|auto_generated|ram_block1a14 $end
$var wire 1 u! DataOut~14_combout $end
$var wire 1 v! RAM_rtl_0|auto_generated|ram_block1a15 $end
$var wire 1 w! Stack_rtl_0|auto_generated|ram_block1a15 $end
$var wire 1 x! DataOut~15_combout $end
$var wire 1 y! RAM_rtl_0|auto_generated|ram_block1a16 $end
$var wire 1 z! Stack_rtl_0|auto_generated|ram_block1a16 $end
$var wire 1 {! DataOut~16_combout $end
$var wire 1 |! RAM_rtl_0|auto_generated|ram_block1a17 $end
$var wire 1 }! Stack_rtl_0|auto_generated|ram_block1a17 $end
$var wire 1 ~! DataOut~17_combout $end
$var wire 1 !" DataIn[18]~input_o $end
$var wire 1 "" DataIn[19]~input_o $end
$var wire 1 #" DataIn[20]~input_o $end
$var wire 1 $" DataIn[21]~input_o $end
$var wire 1 %" DataIn[22]~input_o $end
$var wire 1 &" DataIn[23]~input_o $end
$var wire 1 '" DataIn[24]~input_o $end
$var wire 1 (" DataIn[25]~input_o $end
$var wire 1 )" DataIn[26]~input_o $end
$var wire 1 *" DataIn[27]~input_o $end
$var wire 1 +" DataIn[28]~input_o $end
$var wire 1 ," DataIn[29]~input_o $end
$var wire 1 -" DataIn[30]~input_o $end
$var wire 1 ." DataIn[31]~input_o $end
$var wire 1 /" Stack_rtl_0|auto_generated|ram_block1a18~portbdataout $end
$var wire 1 0" RAM_rtl_0|auto_generated|ram_block1a18~portbdataout $end
$var wire 1 1" DataOut~18_combout $end
$var wire 1 2" Stack_rtl_0|auto_generated|ram_block1a19 $end
$var wire 1 3" RAM_rtl_0|auto_generated|ram_block1a19 $end
$var wire 1 4" DataOut~19_combout $end
$var wire 1 5" Stack_rtl_0|auto_generated|ram_block1a20 $end
$var wire 1 6" RAM_rtl_0|auto_generated|ram_block1a20 $end
$var wire 1 7" DataOut~20_combout $end
$var wire 1 8" RAM_rtl_0|auto_generated|ram_block1a21 $end
$var wire 1 9" Stack_rtl_0|auto_generated|ram_block1a21 $end
$var wire 1 :" DataOut~21_combout $end
$var wire 1 ;" Stack_rtl_0|auto_generated|ram_block1a22 $end
$var wire 1 <" RAM_rtl_0|auto_generated|ram_block1a22 $end
$var wire 1 =" DataOut~22_combout $end
$var wire 1 >" Stack_rtl_0|auto_generated|ram_block1a23 $end
$var wire 1 ?" RAM_rtl_0|auto_generated|ram_block1a23 $end
$var wire 1 @" DataOut~23_combout $end
$var wire 1 A" Stack_rtl_0|auto_generated|ram_block1a24 $end
$var wire 1 B" RAM_rtl_0|auto_generated|ram_block1a24 $end
$var wire 1 C" DataOut~24_combout $end
$var wire 1 D" Stack_rtl_0|auto_generated|ram_block1a25 $end
$var wire 1 E" RAM_rtl_0|auto_generated|ram_block1a25 $end
$var wire 1 F" DataOut~25_combout $end
$var wire 1 G" Stack_rtl_0|auto_generated|ram_block1a26 $end
$var wire 1 H" RAM_rtl_0|auto_generated|ram_block1a26 $end
$var wire 1 I" DataOut~26_combout $end
$var wire 1 J" RAM_rtl_0|auto_generated|ram_block1a27 $end
$var wire 1 K" Stack_rtl_0|auto_generated|ram_block1a27 $end
$var wire 1 L" DataOut~27_combout $end
$var wire 1 M" Stack_rtl_0|auto_generated|ram_block1a28 $end
$var wire 1 N" RAM_rtl_0|auto_generated|ram_block1a28 $end
$var wire 1 O" DataOut~28_combout $end
$var wire 1 P" RAM_rtl_0|auto_generated|ram_block1a29 $end
$var wire 1 Q" Stack_rtl_0|auto_generated|ram_block1a29 $end
$var wire 1 R" DataOut~29_combout $end
$var wire 1 S" Stack_rtl_0|auto_generated|ram_block1a30 $end
$var wire 1 T" RAM_rtl_0|auto_generated|ram_block1a30 $end
$var wire 1 U" DataOut~30_combout $end
$var wire 1 V" RAM_rtl_0|auto_generated|ram_block1a31 $end
$var wire 1 W" Stack_rtl_0|auto_generated|ram_block1a31 $end
$var wire 1 X" DataOut~31_combout $end
$var wire 1 Y" Stack_rtl_0|auto_generated|ram_block1a0_PORTBDATAOUT_bus [17] $end
$var wire 1 Z" Stack_rtl_0|auto_generated|ram_block1a0_PORTBDATAOUT_bus [16] $end
$var wire 1 [" Stack_rtl_0|auto_generated|ram_block1a0_PORTBDATAOUT_bus [15] $end
$var wire 1 \" Stack_rtl_0|auto_generated|ram_block1a0_PORTBDATAOUT_bus [14] $end
$var wire 1 ]" Stack_rtl_0|auto_generated|ram_block1a0_PORTBDATAOUT_bus [13] $end
$var wire 1 ^" Stack_rtl_0|auto_generated|ram_block1a0_PORTBDATAOUT_bus [12] $end
$var wire 1 _" Stack_rtl_0|auto_generated|ram_block1a0_PORTBDATAOUT_bus [11] $end
$var wire 1 `" Stack_rtl_0|auto_generated|ram_block1a0_PORTBDATAOUT_bus [10] $end
$var wire 1 a" Stack_rtl_0|auto_generated|ram_block1a0_PORTBDATAOUT_bus [9] $end
$var wire 1 b" Stack_rtl_0|auto_generated|ram_block1a0_PORTBDATAOUT_bus [8] $end
$var wire 1 c" Stack_rtl_0|auto_generated|ram_block1a0_PORTBDATAOUT_bus [7] $end
$var wire 1 d" Stack_rtl_0|auto_generated|ram_block1a0_PORTBDATAOUT_bus [6] $end
$var wire 1 e" Stack_rtl_0|auto_generated|ram_block1a0_PORTBDATAOUT_bus [5] $end
$var wire 1 f" Stack_rtl_0|auto_generated|ram_block1a0_PORTBDATAOUT_bus [4] $end
$var wire 1 g" Stack_rtl_0|auto_generated|ram_block1a0_PORTBDATAOUT_bus [3] $end
$var wire 1 h" Stack_rtl_0|auto_generated|ram_block1a0_PORTBDATAOUT_bus [2] $end
$var wire 1 i" Stack_rtl_0|auto_generated|ram_block1a0_PORTBDATAOUT_bus [1] $end
$var wire 1 j" Stack_rtl_0|auto_generated|ram_block1a0_PORTBDATAOUT_bus [0] $end
$var wire 1 k" RAM_rtl_0|auto_generated|ram_block1a0_PORTBDATAOUT_bus [17] $end
$var wire 1 l" RAM_rtl_0|auto_generated|ram_block1a0_PORTBDATAOUT_bus [16] $end
$var wire 1 m" RAM_rtl_0|auto_generated|ram_block1a0_PORTBDATAOUT_bus [15] $end
$var wire 1 n" RAM_rtl_0|auto_generated|ram_block1a0_PORTBDATAOUT_bus [14] $end
$var wire 1 o" RAM_rtl_0|auto_generated|ram_block1a0_PORTBDATAOUT_bus [13] $end
$var wire 1 p" RAM_rtl_0|auto_generated|ram_block1a0_PORTBDATAOUT_bus [12] $end
$var wire 1 q" RAM_rtl_0|auto_generated|ram_block1a0_PORTBDATAOUT_bus [11] $end
$var wire 1 r" RAM_rtl_0|auto_generated|ram_block1a0_PORTBDATAOUT_bus [10] $end
$var wire 1 s" RAM_rtl_0|auto_generated|ram_block1a0_PORTBDATAOUT_bus [9] $end
$var wire 1 t" RAM_rtl_0|auto_generated|ram_block1a0_PORTBDATAOUT_bus [8] $end
$var wire 1 u" RAM_rtl_0|auto_generated|ram_block1a0_PORTBDATAOUT_bus [7] $end
$var wire 1 v" RAM_rtl_0|auto_generated|ram_block1a0_PORTBDATAOUT_bus [6] $end
$var wire 1 w" RAM_rtl_0|auto_generated|ram_block1a0_PORTBDATAOUT_bus [5] $end
$var wire 1 x" RAM_rtl_0|auto_generated|ram_block1a0_PORTBDATAOUT_bus [4] $end
$var wire 1 y" RAM_rtl_0|auto_generated|ram_block1a0_PORTBDATAOUT_bus [3] $end
$var wire 1 z" RAM_rtl_0|auto_generated|ram_block1a0_PORTBDATAOUT_bus [2] $end
$var wire 1 {" RAM_rtl_0|auto_generated|ram_block1a0_PORTBDATAOUT_bus [1] $end
$var wire 1 |" RAM_rtl_0|auto_generated|ram_block1a0_PORTBDATAOUT_bus [0] $end
$var wire 1 }" Stack_rtl_0|auto_generated|ram_block1a18_PORTBDATAOUT_bus [17] $end
$var wire 1 ~" Stack_rtl_0|auto_generated|ram_block1a18_PORTBDATAOUT_bus [16] $end
$var wire 1 !# Stack_rtl_0|auto_generated|ram_block1a18_PORTBDATAOUT_bus [15] $end
$var wire 1 "# Stack_rtl_0|auto_generated|ram_block1a18_PORTBDATAOUT_bus [14] $end
$var wire 1 ## Stack_rtl_0|auto_generated|ram_block1a18_PORTBDATAOUT_bus [13] $end
$var wire 1 $# Stack_rtl_0|auto_generated|ram_block1a18_PORTBDATAOUT_bus [12] $end
$var wire 1 %# Stack_rtl_0|auto_generated|ram_block1a18_PORTBDATAOUT_bus [11] $end
$var wire 1 &# Stack_rtl_0|auto_generated|ram_block1a18_PORTBDATAOUT_bus [10] $end
$var wire 1 '# Stack_rtl_0|auto_generated|ram_block1a18_PORTBDATAOUT_bus [9] $end
$var wire 1 (# Stack_rtl_0|auto_generated|ram_block1a18_PORTBDATAOUT_bus [8] $end
$var wire 1 )# Stack_rtl_0|auto_generated|ram_block1a18_PORTBDATAOUT_bus [7] $end
$var wire 1 *# Stack_rtl_0|auto_generated|ram_block1a18_PORTBDATAOUT_bus [6] $end
$var wire 1 +# Stack_rtl_0|auto_generated|ram_block1a18_PORTBDATAOUT_bus [5] $end
$var wire 1 ,# Stack_rtl_0|auto_generated|ram_block1a18_PORTBDATAOUT_bus [4] $end
$var wire 1 -# Stack_rtl_0|auto_generated|ram_block1a18_PORTBDATAOUT_bus [3] $end
$var wire 1 .# Stack_rtl_0|auto_generated|ram_block1a18_PORTBDATAOUT_bus [2] $end
$var wire 1 /# Stack_rtl_0|auto_generated|ram_block1a18_PORTBDATAOUT_bus [1] $end
$var wire 1 0# Stack_rtl_0|auto_generated|ram_block1a18_PORTBDATAOUT_bus [0] $end
$var wire 1 1# RAM_rtl_0|auto_generated|ram_block1a18_PORTBDATAOUT_bus [17] $end
$var wire 1 2# RAM_rtl_0|auto_generated|ram_block1a18_PORTBDATAOUT_bus [16] $end
$var wire 1 3# RAM_rtl_0|auto_generated|ram_block1a18_PORTBDATAOUT_bus [15] $end
$var wire 1 4# RAM_rtl_0|auto_generated|ram_block1a18_PORTBDATAOUT_bus [14] $end
$var wire 1 5# RAM_rtl_0|auto_generated|ram_block1a18_PORTBDATAOUT_bus [13] $end
$var wire 1 6# RAM_rtl_0|auto_generated|ram_block1a18_PORTBDATAOUT_bus [12] $end
$var wire 1 7# RAM_rtl_0|auto_generated|ram_block1a18_PORTBDATAOUT_bus [11] $end
$var wire 1 8# RAM_rtl_0|auto_generated|ram_block1a18_PORTBDATAOUT_bus [10] $end
$var wire 1 9# RAM_rtl_0|auto_generated|ram_block1a18_PORTBDATAOUT_bus [9] $end
$var wire 1 :# RAM_rtl_0|auto_generated|ram_block1a18_PORTBDATAOUT_bus [8] $end
$var wire 1 ;# RAM_rtl_0|auto_generated|ram_block1a18_PORTBDATAOUT_bus [7] $end
$var wire 1 <# RAM_rtl_0|auto_generated|ram_block1a18_PORTBDATAOUT_bus [6] $end
$var wire 1 =# RAM_rtl_0|auto_generated|ram_block1a18_PORTBDATAOUT_bus [5] $end
$var wire 1 ># RAM_rtl_0|auto_generated|ram_block1a18_PORTBDATAOUT_bus [4] $end
$var wire 1 ?# RAM_rtl_0|auto_generated|ram_block1a18_PORTBDATAOUT_bus [3] $end
$var wire 1 @# RAM_rtl_0|auto_generated|ram_block1a18_PORTBDATAOUT_bus [2] $end
$var wire 1 A# RAM_rtl_0|auto_generated|ram_block1a18_PORTBDATAOUT_bus [1] $end
$var wire 1 B# RAM_rtl_0|auto_generated|ram_block1a18_PORTBDATAOUT_bus [0] $end
$upscope $end
$upscope $end
$enddefinitions $end
#0
$dumpvars
b1010 !
0"
0#
b111 $
0%
0&
0F
0E
0D
0C
0B
0A
0@
0?
0>
0=
0<
0;
0:
09
08
07
06
05
04
03
02
01
00
0/
0.
0-
0,
0+
0*
0)
0(
0'
0G
1H
xI
1J
1K
1L
0M
0N
0O
0P
0Q
0R
0S
0T
0U
0V
0W
0X
0Y
0Z
0[
0\
0]
0^
0_
0`
0a
0b
0c
0d
0e
0f
0g
0h
0i
0j
0k
0l
0m
0n
0o
0p
0q
0r
0s
0t
0u
0v
0w
0x
0y
0z
0{
0|
0}
0~
0!!
0"!
0#!
0$!
0%!
0&!
0'!
0(!
0)!
0*!
0+!
0,!
1-!
0.!
1/!
00!
11!
02!
03!
04!
05!
06!
17!
18!
09!
0:!
0;!
0<!
0=!
0>!
0?!
0@!
0A!
0B!
0C!
0D!
0E!
0F!
0G!
0H!
0I!
0J!
0K!
0L!
0M!
0N!
0O!
0P!
0Q!
0R!
0S!
0T!
0U!
0V!
0W!
0X!
0Y!
0Z!
0[!
0\!
0]!
0^!
0_!
0`!
0a!
0b!
0c!
0d!
0e!
0f!
0g!
0h!
0i!
0j!
0k!
0l!
0m!
0n!
0o!
0p!
0q!
0r!
0s!
0t!
0u!
0v!
0w!
0x!
0y!
0z!
0{!
0|!
0}!
0~!
0!"
0""
0#"
0$"
0%"
0&"
0'"
0("
0)"
0*"
0+"
0,"
0-"
0."
0/"
00"
01"
02"
03"
04"
05"
06"
07"
08"
09"
0:"
0;"
0<"
0="
0>"
0?"
0@"
0A"
0B"
0C"
0D"
0E"
0F"
0G"
0H"
0I"
0J"
0K"
0L"
0M"
0N"
0O"
0P"
0Q"
0R"
0S"
0T"
0U"
0V"
0W"
0X"
0j"
0i"
0h"
0g"
0f"
0e"
0d"
0c"
0b"
0a"
0`"
0_"
0^"
0]"
0\"
0["
0Z"
0Y"
0|"
0{"
0z"
0y"
0x"
0w"
0v"
0u"
0t"
0s"
0r"
0q"
0p"
0o"
0n"
0m"
0l"
0k"
00#
0/#
0.#
0-#
0,#
0+#
0*#
0)#
0(#
0'#
0&#
0%#
0$#
0##
0"#
0!#
0~"
0}"
0B#
0A#
0@#
0?#
0>#
0=#
0<#
0;#
0:#
09#
08#
07#
06#
05#
04#
03#
02#
01#
$end
#1000
1#
1+!
1,!
#2000
0#
0+!
0,!
#3000
1#
1+!
1,!
#4000
0#
0+!
0,!
#5000
1#
1+!
1,!
#6000
0#
0+!
0,!
#7000
1#
1+!
1,!
#8000
0#
0+!
0,!
#9000
1#
1+!
1,!
#10000
0#
0+!
0,!
#11000
1#
1+!
1,!
#12000
0#
0+!
0,!
#13000
1#
1+!
1,!
#14000
0#
0+!
0,!
#15000
1#
1+!
1,!
#16000
0#
0+!
0,!
#17000
1#
1+!
1,!
#18000
0#
0+!
0,!
#19000
1#
1+!
1,!
#20000
0#
0+!
0,!
#21000
1#
1+!
1,!
#22000
0#
0+!
0,!
#23000
1#
1+!
1,!
#24000
0#
0+!
0,!
#25000
1#
1+!
1,!
#26000
0#
0+!
0,!
#27000
1#
1+!
1,!
#28000
0#
0+!
0,!
#29000
1#
1+!
1,!
#30000
0#
0+!
0,!
#31000
1#
1+!
1,!
#32000
0#
0+!
0,!
#33000
1#
1+!
1,!
#34000
0#
0+!
0,!
#35000
1#
1+!
1,!
#36000
0#
0+!
0,!
#37000
1#
1+!
1,!
#38000
0#
0+!
0,!
#39000
1#
1+!
1,!
#40000
1%
0#
1&!
0+!
0,!
1I!
#41000
1#
1+!
1,!
#42000
0#
0+!
0,!
#43000
1#
1+!
1,!
#44000
0#
0+!
0,!
#45000
1#
1+!
1,!
#46000
0#
0+!
0,!
#47000
1#
1+!
1,!
#48000
0#
0+!
0,!
#49000
1#
1+!
1,!
#50000
1"
0#
1)!
0+!
0,!
1*!
#51000
1#
1+!
1,!
#51001
1|"
1{"
1z"
1O!
1M!
1J!
1Q!
1N!
1K!
1d
1e
1f
1D
1E
1F
#52000
0#
0+!
0,!
#53000
1#
1+!
1,!
#54000
0#
0+!
0,!
#55000
1#
1+!
1,!
#56000
0#
0+!
0,!
#57000
1#
1+!
1,!
#58000
0#
0+!
0,!
#59000
1#
1+!
1,!
#60000
0#
0+!
0,!
#61000
1#
1+!
1,!
#62000
0#
0+!
0,!
#63000
1#
1+!
1,!
#64000
0#
0+!
0,!
#65000
1#
1+!
1,!
#66000
0#
0+!
0,!
#67000
1#
1+!
1,!
#68000
0#
0+!
0,!
#69000
1#
1+!
1,!
#70000
0#
0+!
0,!
#71000
1#
1+!
1,!
#72000
0#
0+!
0,!
#73000
1#
1+!
1,!
#74000
0#
0+!
0,!
#75000
1#
1+!
1,!
#76000
0#
0+!
0,!
#77000
1#
1+!
1,!
#78000
0#
0+!
0,!
#79000
1#
1+!
1,!
#80000
0#
0+!
0,!
#81000
1#
1+!
1,!
#82000
0#
0+!
0,!
#83000
1#
1+!
1,!
#84000
0#
0+!
0,!
#85000
1#
1+!
1,!
#86000
0#
0+!
0,!
#87000
1#
1+!
1,!
#88000
0#
0+!
0,!
#89000
1#
1+!
1,!
#90000
0#
0+!
0,!
#91000
1#
1+!
1,!
#92000
0#
0+!
0,!
#93000
1#
1+!
1,!
#94000
0#
0+!
0,!
#95000
1#
1+!
1,!
#96000
0#
0+!
0,!
#97000
1#
1+!
1,!
#98000
0#
0+!
0,!
#99000
1#
1+!
1,!
#100000
0"
0#
0)!
0+!
0,!
0*!
#101000
1#
1+!
1,!
#102000
0#
0+!
0,!
#103000
1#
1+!
1,!
#104000
0#
0+!
0,!
#105000
1#
1+!
1,!
#106000
0#
0+!
0,!
#107000
1#
1+!
1,!
#108000
0#
0+!
0,!
#109000
1#
1+!
1,!
#110000
0%
0#
0&!
0+!
0,!
0I!
#111000
1#
1+!
1,!
#112000
0#
0+!
0,!
#113000
1#
1+!
1,!
#114000
0#
0+!
0,!
#115000
1#
1+!
1,!
#116000
0#
0+!
0,!
#117000
1#
1+!
1,!
#118000
0#
0+!
0,!
#119000
1#
1+!
1,!
#120000
0#
0+!
0,!
#121000
1#
1+!
1,!
#122000
0#
0+!
0,!
#123000
1#
1+!
1,!
#124000
0#
0+!
0,!
#125000
1#
1+!
1,!
#126000
0#
0+!
0,!
#127000
1#
1+!
1,!
#128000
0#
0+!
0,!
#129000
1#
1+!
1,!
#130000
0#
0+!
0,!
#131000
1#
1+!
1,!
#132000
0#
0+!
0,!
#133000
1#
1+!
1,!
#134000
0#
0+!
0,!
#135000
1#
1+!
1,!
#136000
0#
0+!
0,!
#137000
1#
1+!
1,!
#138000
0#
0+!
0,!
#139000
1#
1+!
1,!
#140000
0#
0+!
0,!
#141000
1#
1+!
1,!
#142000
0#
0+!
0,!
#143000
1#
1+!
1,!
#144000
0#
0+!
0,!
#145000
1#
1+!
1,!
#146000
0#
0+!
0,!
#147000
1#
1+!
1,!
#148000
0#
0+!
0,!
#149000
1#
1+!
1,!
#150000
1"
0#
1)!
0+!
0,!
1*!
#151000
1#
1+!
1,!
#152000
0#
0+!
0,!
#153000
1#
1+!
1,!
#154000
0#
0+!
0,!
#155000
1#
1+!
1,!
#156000
0#
0+!
0,!
#157000
1#
1+!
1,!
#158000
0#
0+!
0,!
#159000
1#
1+!
1,!
#160000
0#
0+!
0,!
#161000
1#
1+!
1,!
#162000
0#
0+!
0,!
#163000
1#
1+!
1,!
#164000
0#
0+!
0,!
#165000
1#
1+!
1,!
#166000
0#
0+!
0,!
#167000
1#
1+!
1,!
#168000
0#
0+!
0,!
#169000
1#
1+!
1,!
#170000
0#
0+!
0,!
#171000
1#
1+!
1,!
#172000
0#
0+!
0,!
#173000
1#
1+!
1,!
#174000
0#
0+!
0,!
#175000
1#
1+!
1,!
#176000
0#
0+!
0,!
#177000
1#
1+!
1,!
#178000
0#
0+!
0,!
#179000
1#
1+!
1,!
#180000
0#
0+!
0,!
#181000
1#
1+!
1,!
#182000
0#
0+!
0,!
#183000
1#
1+!
1,!
#184000
0#
0+!
0,!
#185000
1#
1+!
1,!
#186000
0#
0+!
0,!
#187000
1#
1+!
1,!
#188000
0#
0+!
0,!
#189000
1#
1+!
1,!
#190000
0#
0+!
0,!
#191000
1#
1+!
1,!
#192000
0#
0+!
0,!
#193000
1#
1+!
1,!
#194000
0#
0+!
0,!
#195000
1#
1+!
1,!
#196000
0#
0+!
0,!
#197000
1#
1+!
1,!
#198000
0#
0+!
0,!
#199000
1#
1+!
1,!
#200000
0"
0#
0)!
0+!
0,!
0*!
#201000
1#
1+!
1,!
#202000
0#
0+!
0,!
#203000
1#
1+!
1,!
#204000
0#
0+!
0,!
#205000
1#
1+!
1,!
#206000
0#
0+!
0,!
#207000
1#
1+!
1,!
#208000
0#
0+!
0,!
#209000
1#
1+!
1,!
#210000
0#
0+!
0,!
#211000
1#
1+!
1,!
#212000
0#
0+!
0,!
#213000
1#
1+!
1,!
#214000
0#
0+!
0,!
#215000
1#
1+!
1,!
#216000
0#
0+!
0,!
#217000
1#
1+!
1,!
#218000
0#
0+!
0,!
#219000
1#
1+!
1,!
#220000
0#
0+!
0,!
#221000
1#
1+!
1,!
#222000
0#
0+!
0,!
#223000
1#
1+!
1,!
#224000
0#
0+!
0,!
#225000
1#
1+!
1,!
#226000
0#
0+!
0,!
#227000
1#
1+!
1,!
#228000
0#
0+!
0,!
#229000
1#
1+!
1,!
#230000
0#
0+!
0,!
#231000
1#
1+!
1,!
#232000
0#
0+!
0,!
#233000
1#
1+!
1,!
#234000
0#
0+!
0,!
#235000
1#
1+!
1,!
#236000
0#
0+!
0,!
#237000
1#
1+!
1,!
#238000
0#
0+!
0,!
#239000
1#
1+!
1,!
#240000
0#
0+!
0,!
#241000
1#
1+!
1,!
#242000
0#
0+!
0,!
#243000
1#
1+!
1,!
#244000
0#
0+!
0,!
#245000
1#
1+!
1,!
#246000
0#
0+!
0,!
